DATE,Confirmed,Deaths,Recovered,Active
Feb-02,8,0,0,8
Feb-03,11,0,0,11
Feb-04,11,0,0,11
Feb-05,11,0,0,11
Feb-06,11,0,0,11
Feb-07,11,0,0,11
Feb-08,11,0,0,11
Feb-09,11,0,3,8
Feb-10,11,0,3,8
Feb-11,12,0,3,9
Feb-12,12,0,3,9
Feb-13,13,0,3,10
Feb-14,13,0,3,10
Feb-15,13,0,3,10
Feb-16,13,0,3,10
Feb-17,13,0,3,10
Feb-18,13,0,3,10
Feb-19,13,0,3,10
Feb-20,13,0,3,10
Feb-21,15,0,5,10
Feb-22,15,0,5,10
Feb-23,15,0,5,10
Feb-24,51,0,5,46
Feb-25,51,0,6,45
Feb-26,57,0,6,51
Feb-27,58,0,6,52
Feb-28,60,0,7,53
Feb-29,68,1,7,60
Mar-01,74,1,7,66
Mar-02,98,6,7,85
Mar-03,118,7,7,104
Mar-04,149,11,7,131
Mar-05,217,12,7,198
Mar-06,262,14,7,241
Mar-07,402,17,7,378
Mar-08,518,21,7,490
Mar-09,583,22,7,554
Mar-10,959,28,8,923
Mar-11,1281,36,8,1237
Mar-12,1663,40,12,1611
Mar-13,2179,47,12,2120
Mar-14,2727,54,12,2661
Mar-15,3499,63,12,3424
Mar-16,4632,85,17,4530
Mar-17,6421,108,17,6296
Mar-18,7783,118,106,7665
Mar-19,13677,200,108,13477
Mar-20,19100,244,147,18856
Mar-21,25489,307,171,25015
Mar-22,33276,417,178,32681
Mar-23,43667,552,178,42937
Mar-24,53740,706,348,52686
Mar-25,65778,942,361,64475
Mar-26,83836,1209,681,81946
Mar-27,101657,1581,869,99207
Mar-28,121478,2026,1072,118380
Mar-29,140886,2467,2665,135754
Mar-30,161807,2978,5644,153185
Mar-31,188172,3873,7024,177275
Apr-01,213372,4757,8474,200141
Apr-02,243453,5926,9001,228526
Apr-03,275586,7087,9707,258792
Apr-04,308850,8407,14652,285791
Apr-05,337072,9619,17448,310005
Apr-06,366614,10783,19581,336250
Apr-07,396223,12722,21763,361738
Apr-08,429052,14695,23559,390798
Apr-09,461437,16478,25410,419549
Apr-10,496535,18586,28790,449159
Apr-11,526396,20463,31270,474663
Apr-12,555313,22020,32988,500305
Apr-13,580619,23529,43482,513608
Apr-14,607670,25832,47763,534075
Apr-15,636350,28326,52096,555928
Apr-16,667801,32917,54703,580181
Apr-17,699706,36773,58545,604388
Apr-18,732197,38664,64840,628693
Apr-19,759086,40661,70337,648088
Apr-20,784326,42094,72329,669903
Apr-21,823786,44845,75204,703737
Apr-22,839675,46583,77366,715726
Apr-23,869170,49954,80203,739013
Apr-24,905333,51949,99079,754305
Apr-25,938154,53755,100372,784027
Apr-26,965783,54881,106988,803914
Apr-27,988197,56259,111424,820514
Apr-28,1012582,58355,115936,838291
Apr-29,1039909,60967,120720,858222
Apr-30,1069424,62996,153947,852481
May-01,1103461,64943,164015,874503
May-02,1132539,66369,175382,890788
May-03,1158040,67682,180152,910206
May-04,1180375,68922,187180,924273
May-05,1204351,71064,189791,943496
May-06,1228603,73431,189910,965262
May-07,1257023,75662,195036,986325
May-08,1283929,77180,198993,1007756
May-09,1309550,78795,212534,1018221
May-10,1329260,79526,216169,1033565
May-11,1347881,80682,232733,1034466
May-12,1369574,82376,230287,1056911
May-13,1390406,84119,243430,1062857
May-14,1417774,85898,246414,1085462
May-15,1442824,87530,250747,1104547
May-16,1467820,88754,268376,1110690
May-17,1486757,89562,272265,1124930
May-18,1508308,90347,283178,1134783
May-19,1528568,91921,289392,1147255
May-20,1551853,93439,294312,1164102
May-21,1577147,94702,298418,1184027
May-22,1600937,95979,350135,1154823
May-23,1622612,97087,361239,1164286
May-24,1643246,97720,366736,1178790
May-25,1662302,98220,379157,1184925
May-26,1680913,98913,384902,1197098
May-27,1699176,100418,391508,1207250
May-28,1721753,101616,399991,1220146
May-29,1746019,102809,406446,1236764
May-30,1770165,103776,416461,1249928
May-31,1790172,104381,444758,1241033
Jun-01,1811360,105165,458231,1247964
Jun-02,1831821,106180,463868,1261773
Jun-03,1851520,107175,479258,1265087
Jun-04,1872660,108211,485002,1279447
Jun-05,1897380,109132,491706,1296542
Jun-06,1920061,109802,500849,1309410
Jun-07,1942363,110514,506367,1325482
Jun-08,1960897,110990,518522,1331385
Jun-09,1979411,111989,524855,1342567
Jun-10,2000464,112924,533504,1354036
Jun-11,2023347,113820,540292,1369235
Jun-12,2048986,114669,547386,1386931
Jun-13,2074526,115436,556606,1402484
Jun-14,2094058,115732,561816,1416510
Jun-15,2114026,116127,576334,1421565
Jun-16,2137731,116963,583503,1437265
Jun-17,2163290,117717,592191,1453382
Jun-18,2191053,118440,599115,1473498
Jun-19,2220962,119118,606715,1495129
Jun-20,2255119,119719,617460,1517940
Jun-21,2279879,119969,622133,1537777
Jun-22,2312300,120402,640198,1551700
Jun-23,2347022,121228,647548,1578246
Jun-24,2381361,121979,656161,1603221
Jun-25,2422299,124410,663562,1634327
Jun-26,2439837,124335,670809,1644693
Jun-27,2510151,125539,679308,1705304
Jun-28,2548996,125803,685164,1738029
Jun-29,2590552,126140,705203,1759209
Jun-30,2635417,127417,720631,1787369
Jul-01,2686258,128062,729994,1828202
Jul-02,2739879,128740,781970,1829169
Jul-03,2794153,129434,790404,1874315
Jul-04,2839436,129676,894325,1815435
Jul-05,2888635,129947,906763,1851925
Jul-06,2936077,130285,924148,1881644
Jul-07,2996098,131480,936476,1928142
Jul-08,3054699,132300,953420,1968979
Jul-09,3117946,133290,969111,2015545
Jul-10,3184573,134092,983185,2067296
Jul-11,3245925,134777,995576,2115572
Jul-12,3304942,135205,1006326,2163411
Jul-13,3363056,135605,1031939,2195512
Jul-14,3431574,136466,1049098,2246010
Jul-15,3497847,137407,1075882,2284558
Jul-16,3576157,138358,1090645,2347154
Jul-17,3647715,139266,1107204,2401245
Jul-18,3711413,140119,1122720,2448574
Jul-19,3773260,140534,1131121,2501605
Jul-20,3830010,140906,1160087,2529017
Jul-21,3899211,141995,1182018,2575198
Jul-22,3970906,143190,1210849,2616867
Jul-23,4038748,144304,1233269,2661175
Jul-24,4112531,145546,1261624,2705361
Jul-25,4178021,146460,1279414,2752147
Jul-26,4233923,146935,1297863,2789125
Jul-27,4290259,148011,1325804,2816444
Jul-28,4351997,149256,1355363,2847378
Jul-29,4426982,150713,1389425,2886844
Jul-30,4494601,152055,1414155,2928391
Jul-31,4562038,153314,1438160,2970564
Aug-01,4620444,154447,1461885,3004112
Aug-02,4667955,154860,1468689,3044406
Aug-03,4713540,155402,1513446,3044692
Aug-04,4771080,156801,1528979,3085300
Aug-05,4823890,158250,1577851,3087789
Aug-06,4883582,160104,1598624,3124854
Aug-07,4941755,161347,1623870,3156538
Aug-08,4997929,162423,1643118,3192388
Aug-09,5044864,162938,1656864,3225062
Aug-10,5094400,163463,1670755,3260182
Aug-11,5141208,164537,1714960,3261711
Aug-12,5197118,166026,1753760,3277332
Aug-13,5248854,167110,1774648,3307096
Aug-14,5313055,168446,1796326,3348283
Aug-15,5361165,169481,1818527,3373157
Aug-16,5403213,170052,1833067,3400094
Aug-17,5438325,170497,1865580,3402248
Aug-18,5482416,171821,1898159,3412436
Aug-19,5529824,173177,1925049,3431598
Aug-20,5573847,174255,1947035,3452557
Aug-21,5622540,175363,1965056,3482121
Aug-22,5667112,176353,1985484,3505275
Aug-23,5701679,176802,1997761,3527116
Aug-25,5777710,178486,2053699,3545525
Aug-26,5821819,179708,2084465,3557646
Aug-27,5867785,180824,2101326,3585635
Aug-28,5913941,181800,2118367,3613774
Aug-29,5961094,182761,2140614,3637719
Aug-30,5996431,183066,2153939,3659426
Aug-31,6030587,183597,2184825,3662165
Sep-01,6073840,184664,2202663,3686513
Sep-02,6113510,185720,2231757,3696033
Sep-03,6150016,186790,2266957,3696269
Sep-04,6200518,187755,2283454,3729309
Sep-05,6244970,188538,2302187,3754245
Sep-06,6276365,188941,2315995,3771429
Sep-07,6300622,189208,2333551,3777863
Sep-08,6327009,189653,2359111,3778245
Sep-09,6361265,190859,2387479,3782927
Sep-10,6396551,191766,2403511,3801274
Sep-11,6443743,192979,2417878,3832886
Sep-12,6485214,193693,2434658,3856863
Sep-13,6519573,194071,2451406,3874096
Sep-14,6553399,194489,2474570,3884340
Sep-15,6605733,195915,2495127,3914691
Sep-16,6630051,196763,2525573,3907715
Sep-17,6674411,197633,2540334,3936444
Sep-18,6723933,198570,2556465,3968898
Sep-19,6764970,199259,2577446,3988265
Sep-20,6810879,199509,2590671,4020699
Sep-21,6856884,199865,2615949,4041070
Sep-22,6896218,200786,2646959,4048473
Sep-23,6933548,201884,2670256,4061408
Sep-24,6977658,202798,2710183,4064677
Sep-25,7032712,203750,2727335,4101627
Sep-26,7078089,204490,2750459,4123140
Sep-28,7148045,205072,2794608,4148365
Sep-29,7190230,205986,2813305,4170939
Sep-30,7233042,206932,2840688,4185422
Oct-01,7277759,207789,2860650,4209320
Oct-02,7332200,208695,2873369,4250136
Oct-03,7382194,209382,2897322,4275490
Oct-04,7417845,209721,2911699,4296425
Oct-05,7457402,210181,2935142,4312079
Oct-06,7500964,210886,2952390,4337688
Oct-07,7549682,211801,2999895,4337986
Oct-08,7605873,212762,3021252,4371859
Oct-09,7663293,213752,3039089,4410452
Oct-10,7717932,214370,3062983,4440579
Oct-11,7762546,214768,3075077,4472701
Oct-12,7804199,215085,3106728,4482386
Oct-13,7856605,215887,3124593,4516125
Oct-14,7916099,216872,3155794,4543433
Oct-15,7979709,217692,3177397,4584620
Oct-16,8048865,218575,3197539,4632751
Oct-17,8106384,219286,3220573,4666525
Oct-18,8154594,219674,3234138,4700782
Oct-19,8212981,220119,3272603,4720259
Oct-20,8273296,221052,3295148,4757096
Oct-21,8336031,222176,3323354,4790501
Oct-22,8407702,223032,3353056,4831614
Oct-23,8491459,223975,3375427,4892057
Oct-24,8575177,224889,3406656,4943632
Oct-25,8635966,225229,3422878,4987859
Oct-26,8702750,225706,3460455,5016589
Oct-27,8777432,226691,3487666,5063075
Oct-28,8856413,227685,3518140,5110588
Oct-29,8944934,228656,3554336,5161942
Oct-30,9044255,229686,3578452,5236117
Oct-31,9125482,230548,3612478,5282456
Nov-01,9206975,230995,3630579,5345401
Nov-02,9291064,231552,3674981,5384531
Nov-03,9382617,232620,3705130,5444867
Nov-04,9485448,233717,3743527,5508204
Nov-05,9607336,234927,3781751,5590658
Nov-06,9733816,236073,3810791,5686952
Nov-07,9860558,237113,3851465,5771980
Nov-08,9968155,237570,3881491,5849094
Nov-09,10111077,238256,3928845,5943976
Nov-10,10252129,239671,3961873,6050585
Nov-11,10400227,241798,3997175,6161254
Nov-12,10552821,242423,4051256,6259142
Nov-13,10737335,244332,4095146,6397857
Nov-14,10903890,245598,4148444,6509848
Nov-15,11036935,246214,4174884,6615837
Nov-16,11202980,247202,4244811,6710967
Nov-17,11357322,248672,4293640,6815010
Nov-18,11527483,250520,4350789,6926174
Nov-19,11715316,252535,4410709,7052072
Nov-20,11910858,254413,4457930,7198515
Nov-21,12088410,255861,4529700,7302849
Nov-22,12246849,256782,4526513,7463554
Nov-23,12416039,257671,4633600,7524768
Nov-24,12591163,259925,4696664,7634574
Nov-25,12772653,262222,4835956,7674475
Nov-26,12883264,263454,4871203,7748607
Nov-27,13088821,264858,4947446,7876517
Nov-28,13244417,266047,5023063,7955307
Nov-29,13383320,266873,5065030,8051417
Nov-30,13541221,268045,5146319,8126857
Dec-01,13721304,270642,5226581,8224081
Dec-02,13921374,273799,5322128,8325447
Dec-03,14139577,276325,5404018,8459234
Dec-04,14367462,278932,5470389,8618141
Dec-05,14581337,281186,5576026,8724125
Dec-06,14757000,282299,5624444,8850257
Dec-07,14949299,283703,5714557,8951039
Dec-08,15165159,286249,5786915,9091995
Dec-09,15386562,289373,5889896,9207293
Dec-10,15611014,292141,5985047,9333826
Dec-11,15842789,295450,6135314,9412025
Dec-12,16062299,297818,6246605,9517876
Dec-13,16253219,299168,6298082,9655969
Dec-14,16519462,300479,6399531,9819452
Dec-15,16716777,303773,0,16413004
Dec-16,16964180,307429,0,16656751
Dec-17,17206647,310699,0,16895948
Dec-18,17459296,313588,0,17145708
Dec-19,17655591,316159,0,17339432
Dec-20,17844690,317668,0,17527022
Dec-21,18035209,319364,0,17715845
Dec-22,18230242,322765,0,17907477
Dec-23,18458373,326124,0,18132249
Dec-24,18650454,329023,0,18321431
Dec-25,18756360,330246,0,18426114
Dec-26,18982634,331909,0,18650725
Dec-27,19132726,333118,0,18799608
Dec-28,19301543,334836,0,18966707
Dec-29,19510836,338561,0,19172275
Dec-30,19740468,342312,0,19398156
Dec-31,19968087,345737,0,19622350
Jan-01,20128693,347788,0,19780905
